ID Fecha     Hora  Ent/Sal
1 01/05/2017 10:00 ENT 
1 01/05/2017 18:00 SAL
1 02/05/2017 10:00 ENT 
1 02/05/2017 18:00 SAL
1 03/05/2017 10:00 ENT 
1 03/05/2017 18:00 SAL
1 04/05/2017 10:00 ENT 
1 04/05/2017 18:00 SAL
1 05/05/2017 10:00 ENT 
1 05/05/2017 18:00 SAL
1 06/05/2017 10:00 ENT 
1 06/05/2017 18:00 SAL
1 07/05/2017 10:00 ENT 
1 07/05/2017 18:00 SAL
1 08/05/2017 10:00 ENT 
1 08/05/2017 18:00 SAL
1 09/05/2017 10:00 ENT 
1 09/05/2017 18:00 SAL
1 10/05/2017 10:00 ENT 
1 10/05/2017 18:00 SAL
1 11/05/2017 10:00 ENT 
1 11/05/2017 18:00 SAL
1 12/05/2017 10:00 ENT 
1 12/05/2017 18:00 SAL
4 12/05/2017 10:00 ENT 
4 12/05/2017 18:00 SAL
1 13/05/2017 10:00 ENT 
1 13/05/2017 18:00 SAL
1 14/05/2017 10:00 ENT 
1 14/05/2017 18:00 SAL
1 15/05/2017 10:00 ENT 
1 15/05/2017 18:00 SAL
1 16/05/2017 10:00 ENT 
1 16/05/2017 18:00 SAL
1 17/05/2017 10:00 ENT 
1 17/05/2017 18:00 SAL
1 18/05/2017 10:00 ENT 
1 18/05/2017 18:00 SAL
2 01/05/2017 07:00 ENT
3 01/05/2017 10:00 ENT 
2 02/05/2017 07:00 ENT
2 02/05/2017 14:00 SAL
2 03/05/2017 07:00 ENT
2 03/05/2017 14:00 SAL
3 01/05/2017 18:00 SAL
2 01/2017 14:00 SAL
3 02/05/2017 10:00 ENT 
3 02/05/2017 18:00 SAL
3 03/05/2017 10:00 ENT 
3 03/05/2017 18:00 SAL
3 04/05/2017 10:00 ENT 
3 04/05/2017 18:00 SAL
3 05/05/2017 10:00 ENT 
3 05/05/2017 18:00 SAL
3 06/05/2017 10:00 ENT 
3 06/05/2017 18:00 SAL
3 07/05/2017 10:00 ENT 
3 07/05/2017 18:00 SAL
3 08/05/2017 10:00 ENT 
3 08/05/2017 18:00 SAL
3 09/05/2017 10:00 ENT 
4 09/05/2017 18:00 SAL
4 10/05/2017 10:00 ENT 
4 10/05/2017 18:00 SAL
4 11/05/2017 10:00 ENT 
4 11/05/2017 18:00 SAL
4 13/05/2017 10:00 ENT 
4 13/05/2017 18:00 SAL
4 14/05/2017 10:00 ENT 
4 14/05/2017 18:00 SAL
4 15/05/2017 10:00 ENT 
4 15/05/2017 18:00 SAL
4 16/05/2017 10:00 ENT 
4 16/05/2017 18:00 SAL
4 17/05/2017 10:00 ENT 
4 17/05/2017 18:00 SAL
4 18/05/2017 10:00 ENT 
4 18/05/2017 18:00 SAL
1 02/06/2017 10:00 ENT
6 02/06/2017 10:00 ENT 
6 02/06/2017 18:00 SAL
6 03/06/2017 10:00 ENT 
6 03/06/2017 18:00 SAL
6 04/06/2017 10:00 ENT 
6 04/06/2017 18:00 SAL
6 05/06/2017 10:00 ENT 
6 05/06/2017 18:00 SAL
6 06/06/2017 10:00 ENT 
6 06/06/2017 18:00 SAL
6 07/06/2017 10:00 ENT
6 07/06/2017 18:00 SAL
6 08/06/2017 10:00 ENT 
6 08/06/2017 18:00 SAL
6 09/06/2017 10:00 ENT 
6 09/06/2017 18:00 SAL
6 10/06/2017 10:00 ENT 
6 10/06/2017 18:00 SAL
6 11/06/2017 10:00 ENT 
6 11/06/2017 18:00 SAL
6 12/06/2017 10:00 ENT 
6 12/06/2017 18:00 SAL
6 13/06/2017 10:00 ENT 
6 13/06/2017 18:00 SAL
6 14/06/2017 10:00 ENT 
6 14/06/2017 18:00 SAL
6 15/06/2017 10:00 ENT 
6 15/06/2017 18:00 SAL
6 16/06/2017 10:00 ENT 
6 16/06/2017 18:00 SAL
6 17/06/2017 10:00 ENT 
6 17/06/2017 18:00 SAL
6 18/06/2017 10:00 ENT 
6 18/06/2017 18:00 SAL 
1 02/06/2017 18:00 SAL
1 03/06/2017 10:00 ENT 
1 03/06/2017 18:00 SAL
1 04/06/2017 10:00 ENT 
1 04/06/2017 18:00 SAL
1 05/06/2017 10:00 ENT 
1 05/06/2017 18:00 SAL
1 06/06/2017 10:00 ENT 
1 06/06/2017 18:00 SAL
1 07/06/2017 10:00 ENT
1 07/06/2017 18:00 SAL
1 08/06/2017 10:00 ENT 
1 08/06/2017 18:00 SAL
1 09/06/2017 10:00 ENT 
1 09/06/2017 18:00 SAL
1 10/06/2017 10:00 ENT 
1 10/06/2017 18:00 SAL
1 11/06/2017 10:00 ENT 
1 11/06/2017 18:00 SAL
1 12/06/2017 10:00 ENT 
1 12/06/2017 18:00 SAL
1 13/06/2017 10:00 ENT 
1 13/06/2017 18:00 SAL
1 14/06/2017 10:00 ENT 
1 14/06/2017 18:00 SAL
1 15/06/2017 10:00 ENT 
1 15/06/2017 18:00 SAL
1 16/06/2017 10:00 ENT 
1 16/06/2017 18:00 SAL
1 17/06/2017 10:00 ENT 
1 17/06/2017 18:00 SAL
1 18/06/2017 10:00 ENT
5 18/04/2017 10:00 ENT 
5 18/04/2017 18:00 SAL 
1 18/06/2017 18:00 SAL